module gitlab.com/ravilushqa/antibruteforce

go 1.13

require (
	github.com/DATA-DOG/godog v0.7.13
	github.com/cockroachdb/apd v1.1.0 // indirect
	github.com/gofrs/uuid v3.2.0+incompatible // indirect
	github.com/golang/protobuf v1.3.2
	github.com/grpc-ecosystem/go-grpc-middleware v1.0.0
	github.com/grpc-ecosystem/go-grpc-prometheus v1.2.0
	github.com/jackc/fake v0.0.0-20150926172116-812a484cc733 // indirect
	github.com/jackc/pgx v3.6.0+incompatible
	github.com/jmoiron/sqlx v1.2.0
	github.com/jnewmano/grpc-json-proxy v0.0.0-20200227201450-d2f9a1e2ec3d
	github.com/lib/pq v1.0.0
	github.com/prometheus/client_golang v0.9.3
	github.com/shopspring/decimal v0.0.0-20191009025716-f1972eb1d1f5 // indirect
	github.com/spf13/cobra v0.0.5
	github.com/spf13/viper v1.4.0
	github.com/stretchr/testify v1.4.0
	go.uber.org/automaxprocs v1.3.0
	go.uber.org/zap v1.10.0
	golang.org/x/sync v0.0.0-20190911185100-cd5d95a43a6e
	google.golang.org/grpc v1.21.0
)
